name	total_issues	closed_issues	stargazers	watchers	forks	mentionable_users	releases	activity	closure	score	last_updated	url	description	topics	_id
Sigma	0	0	9	3	240	1	3	19440.0	1.0	7.310138720552893	2021-05-01 18:26:26	https://github.com/Th30neAnd0nly/Sigma	The all in one Phishing Website coded in HTML.	hacking,phishing,hack-facebook,hack-instagram,hack-social-media,hack-twitter,omega,hack-paypal,hack-netflix,html	MDEwOlJlcG9zaXRvcnkyNjgwMTcyODA=
b2	9	1	8	5	211	9	9	683640.0	0.2	15.044624654696541	2021-05-12 12:23:18	https://github.com/bfgroup/b2	B2 makes it easy to build C++ projects, everywhere.	c,build,cplusplus,objective-c,cpp,fortran,assembly,docbook,dolphin,build-tool	MDEwOlJlcG9zaXRvcnkzMzg3MjIzNDE=
WordNook	5	5	7	1	190	20	0	0.0	1.0	0.0	2021-04-23 21:30:16	https://github.com/Pranav016/WordNook	Dynamically updating Blog-Site to upload blogs on various topics, developed using ejs template engine and node js in the backend.	nodejs,mongoose,expressjs,ejs,javascript	MDEwOlJlcG9zaXRvcnkzMjQ0MzMwMjI=
hashicorp-certified-terraform-associate	0	0	10	2	159	1	0	0.0	1.0	0.0	2021-05-14 15:41:34	https://github.com/stacksimplify/hashicorp-certified-terraform-associate	Hashicorp Certified Terraform Associate	terraform,terraform-module,terraform-managed,terraform-provider,terraform-aws,terraform-configurations,terraform-live,aws,aws-terraform,hashicorp-terraform	MDEwOlJlcG9zaXRvcnkzNDc4NzA5MTc=
challenge-javascript-02	4	0	8	3	159	7	0	0.0	0.2	0.0	2020-11-24 18:34:11	https://github.com/PlatziMaster/challenge-javascript-02	challenge-javascript-02 - Número de Fibonacci	javascript,math,numbers,level-basic	MDEwOlJlcG9zaXRvcnkyMzY2MTc0MzA=
challenge-javascript-03	1	0	8	3	136	7	0	0.0	0.5	0.0	2020-07-13 22:58:33	https://github.com/PlatziMaster/challenge-javascript-03	challenge-javascript-03 - Factorial	javascript,math,numbers,level-basic	MDEwOlJlcG9zaXRvcnkyMzY2MjMzNjM=
Digital-electronics-1	0	0	10	8	95	1	1	7600.0	1.0	5.129241036504102	2021-04-30 12:11:48	https://github.com/tomas-fryza/Digital-electronics-1	VHDL course at Brno University of Technology	brno-university-of-technology,fpga,vivado,nexys-a7,vhdl	MDEwOlJlcG9zaXRvcnkyMzQ0OTExODg=
CodingClubIndia	0	0	5	2	118	94	0	0.0	1.0	0.0	2021-02-11 16:30:12	https://github.com/MukulCode/CodingClubIndia	This repo is to demonstrate the GIT version control and promote hacktober fest.	hacktoberfest2020,hacktoberfest,hacktoberfest-accepted	MDEwOlJlcG9zaXRvcnkyMTQ1MDcxNDk=
gitinit	0	0	10	2	83	107	0	0.0	1.0	0.0	2020-10-20 14:04:56	https://github.com/kindavishal/gitinit	A fun workshop to help students learn Git and GitHub. Originally created by @haxzie and remixed by Me and @HarishTeens! Leave a star if you like :sparkles:	netlify,gatsby,first-pull-request-and-commit,hacktoberfest,hacktoberfest2020	MDEwOlJlcG9zaXRvcnkyMDU1ODQxMjU=
frontend	7	0	10	9	87	7	0	0.0	0.125	0.0	2021-05-14 17:19:41	https://github.com/PlatziMaster/frontend	Platzi Master Frontend Test	javascript,react,stylus	MDEwOlJlcG9zaXRvcnkzNjAzMjc3NTc=
challenge-javascript-06	3	0	6	2	95	7	0	0.0	0.25	0.0	2020-06-12 22:51:08	https://github.com/PlatziMaster/challenge-javascript-06	challenge-javascript-06 - Problema de suma combinada	javascript,math,numbers,level-medium	MDEwOlJlcG9zaXRvcnkyMzY4MjAyNTg=
Hacktoberfest_Contribute_anything	1	0	10	1	74	93	0	0.0	0.5	0.0	2021-04-28 05:00:30	https://github.com/BalajiG2000/Hacktoberfest_Contribute_anything	This repository is to help beginners learn Open source contributions . This repository is created with respect to HACKTOBERFEST 2020 .	hacktoberfest2020,hacktoberfest-accepted,good-first-issue,hacktoberfest,pull-request,c,cpp,java,python,javascript	MDEwOlJlcG9zaXRvcnkzMDE5NTMyNzU=
GitHub_Organization_Info	0	0	2	2	162	1	0	0.0	1.0	0.0	2021-05-14 22:18:43	https://github.com/seanpm2001/GitHub_Organization_Info	Info on my GitHub organizations and their usage.	github,organization,organization-info,article,gpl3,gplv3,txt,md,wiki,portal	MDEwOlJlcG9zaXRvcnkzNjAzNDA0NDg=
kurs_cpp_podstawowy	26	16	6	5	93	6	0	0.0	0.6296296296296297	0.0	2021-05-12 08:15:36	https://github.com/coders-school/kurs_cpp_podstawowy		cpp,cpp17,cplusplus,md,markdown,reveal-js	MDEwOlJlcG9zaXRvcnkyNDQ5NTczNzM=
challenge-javascript-04	4	0	3	2	124	7	0	0.0	0.2	0.0	2020-06-09 21:32:52	https://github.com/PlatziMaster/challenge-javascript-04	challenge-javascript-04 - Prueba de primalidad	javascript,math,numbers,level-basic	MDEwOlJlcG9zaXRvcnkyMzY2NTQ2OTU=
challenge-javascript-05	1	0	5	2	98	7	0	0.0	0.5	0.0	2020-06-12 22:50:22	https://github.com/PlatziMaster/challenge-javascript-05	challenge-javascript-05 - Triángulo De Pascal	javascript,maths,numbers,level-medium	MDEwOlJlcG9zaXRvcnkyMzY4MTAyMTY=
Data-Structures-and-Algorithms	19	1	8	1	77	76	0	0.0	0.1	0.0	2021-02-12 15:10:04	https://github.com/The-Streamliners/Data-Structures-and-Algorithms	StreamLiner's DSA Challenge, create algorithms, programs in any programming language you love and prefer! Check ISSUE section for ideas.	first-timers,github,beginner-friendly,competitive-programming,data-structures,algorithms	MDEwOlJlcG9zaXRvcnkyOTk2MTg0NzA=
Basic-Python-Scripts	14	4	9	1	73	85	0	0.0	0.3333333333333333	0.0	2021-01-20 16:04:11	https://github.com/anshrathod/Basic-Python-Scripts	Created For HacktoberFest.	hacktoberfest,hacktoberfest2020,hacktoberfest-starter,good-first-issue,open-source,digitalocean,python,python36	MDEwOlJlcG9zaXRvcnkzMDAyNTI1Mzc=
low-level-design-concepts	2	0	4	2	101	1	0	0.0	0.3333333333333333	0.0	2021-04-02 07:13:20	https://github.com/kshitijmishra23/low-level-design-concepts	Code Samples to understand SOLID design principles and Design Patterns in JAVA.	java,solid-principles,lld,design-patterns	MDEwOlJlcG9zaXRvcnkyNzU4MjQ3OTQ=
challenge-javascript-08	1	0	3	3	110	7	0	0.0	0.5	0.0	2020-06-12 22:58:12	https://github.com/PlatziMaster/challenge-javascript-08	challenge-javascript-08 - JavaScript Array Filter	javascript,arrays,level-basic,time-20	MDEwOlJlcG9zaXRvcnkyMzcxOTQ4OTM=
Node-RED-Docker	1	1	4	2	98	1	0	0.0	1.0	0.0	2021-04-27 09:18:56	https://github.com/binnes/Node-RED-Docker	Template project for running Node-RED in Docker	node-red,docker,cloud,devops,dockerfile,low-code,containerization,container	MDEwOlJlcG9zaXRvcnkyMTEwNTMxMDc=
jenkins-pic	0	0	3	1	104	2	0	0.0	1.0	0.0	2021-04-20 14:47:38	https://github.com/crunchy-devops/jenkins-pic	CI/CD platform using Jenkins, docker, Sonar, Nexus, JMeter, Selenium, gitlab-ce, Ansible, AWX	docker,selenium,nexus,jmeter,ansible,awx,sonarqube	MDEwOlJlcG9zaXRvcnkyNjI3MjAxMDU=
Hacktoberfest-KIIT-2020	1	1	7	1	70	78	0	0.0	1.0	0.0	2020-10-30 06:25:16	https://github.com/junaidrahim/Hacktoberfest-KIIT-2020	To encourage and educate students of KIIT about Open Source Software and GitHub	beginners,opensource,giveback,kiit,c,cpp,python,go,java,hacktoberfest	MDEwOlJlcG9zaXRvcnkyMTIyODcwMTI=
popular-quotes	16	12	9	1	61	54	1	29646.0	0.7647058823529411	3.417000730768417	2020-03-16 23:21:00	https://github.com/Snipey/popular-quotes	A popular quotes package to get you quotes from various sources of media	quotes,fun,utility	MDEwOlJlcG9zaXRvcnkyMTMyNDYwODI=
GFDL_atmos_cubed_sphere	27	16	10	14	57	20	8	1276800.0	0.6071428571428571	15.539687924808396	2021-05-13 19:14:22	https://github.com/NOAA-GFDL/GFDL_atmos_cubed_sphere	The GFDL atmos_cubed_sphere dynamical core code	gfdl,physics,fv3,fms,climate,model-component,fortran	MDEwOlJlcG9zaXRvcnkxOTc0MzE1NjY=
hacktoberfest	2	2	8	0	61	56	0	0.0	1.0	0.0	2021-04-04 23:09:54	https://github.com/jinwoov/hacktoberfest	Hacktober fest repository and purely designed for good intention.	hacktoberfest,hacktoberfest2020,hacktoberfest-accepted,beginner-friendly,first-timers	MDEwOlJlcG9zaXRvcnkzMDY3ODUwNjQ=
macOS-SSH	0	0	3	1	96	5	0	0.0	1.0	0.0	2021-05-10 11:52:14	https://github.com/Area69Lab/macOS-SSH	SSH into macOS Big Sur running in GitHub Actions using ngrok or tmate	ssh-tunnel,macos,actions	MDEwOlJlcG9zaXRvcnkzMzAyMTUyODY=
git-demo	0	0	7	3	63	1	0	0.0	1.0	0.0	2021-03-25 15:12:41	https://github.com/romankh3/git-demo	Project created for step-by-step guidelines for learning Git	git,demonstration,guidelines	MDEwOlJlcG9zaXRvcnkyNTM1NzkxNzU=
challenge-full-stack-web	0	0	4	5	73	5	0	0.0	1.0	0.0	2021-04-27 14:52:18	https://github.com/grupo-a/challenge-full-stack-web	O objetivo deste desafio é avaliar as competências técnicas dos candidatos a desenvolvedor Full Stack Web na Maior Plataforma de Educação do Brasil, Grupo A Educação.	nodejs,epxressjs,vue,vutify	MDEwOlJlcG9zaXRvcnkyNjQ5MzUxOTM=
html-tutorial-exercises-course	5	2	7	2	58	6	0	0.0	0.5	0.0	2021-04-04 20:39:16	https://github.com/4GeeksAcademy/html-tutorial-exercises-course	Learn HTML with an interactive and auto-graded tutorial with dozens of exercises.	html-exercises,tutorial,learning-html,html-tutorial,interactive-tutorial,interactive-html,learn-html,html-course,autograded-exercises,autograded-html	MDEwOlJlcG9zaXRvcnkxOTgyODgyMDg=
Induction-2021	3	3	1	3	139	125	0	0.0	1.0	0.0	2021-05-14 14:17:53	https://github.com/EnigmaVSSUT/Induction-2021	Induction 2021	induction,git,github,ml,ai,python,web,html,css,javascript	MDEwOlJlcG9zaXRvcnkzNTk0MjY5Nzk=
challenge-javascript-10	2	1	4	3	76	8	0	0.0	0.6666666666666666	0.0	2020-11-08 06:05:52	https://github.com/PlatziMaster/challenge-javascript-10	Map and reduce in JS	javascript,arrays,level-medium	MDEwOlJlcG9zaXRvcnkyMzk4NDgyNTY=
FSW-CLI-Snowman	0	0	1	5	137	36	0	0.0	1.0	0.0	2021-03-19 21:44:25	https://github.com/joinpursuit/FSW-CLI-Snowman	Command Line Game Snowman	command-line,game,terminal	MDEwOlJlcG9zaXRvcnkxOTk4NzQ5NzY=
coderjojo	1	1	8	1	55	2	0	0.0	1.0	0.0	2021-03-31 07:58:45	https://github.com/coderjojo/coderjojo	Vedant Jajoo Personal README	github,readme,profile,portfolio	MDEwOlJlcG9zaXRvcnkyNjMxMTk1ODM=
AlexaSongBot	0	0	10	1	53	1	0	0.0	1.0	0.0	2021-04-17 09:16:09	https://github.com/Mr-Dark-Prince/AlexaSongBot	Telegram Music Bot 📻	music,pyrogram,tgbot,youtube	MDEwOlJlcG9zaXRvcnkzMzgyMjkyOTQ=
appsmith-docs	7	5	10	18	49	61	0	0.0	0.75	0.0	2021-05-14 11:19:38	https://github.com/appsmithorg/appsmith-docs	Mirror of documentation at https://docs.appsmith.com. Raise Pull requests against this repository to update the documentation	hacktoberfest,documentation,lowcode	MDEwOlJlcG9zaXRvcnkyOTA0NTI1NjI=
SSW.People.Profiles	35	26	5	18	66	91	0	0.0	0.75	0.0	2021-05-12 04:36:09	https://github.com/SSWConsulting/SSW.People.Profiles	These are the profile folders for SSW.People. ▶️ Video: http://r.ssw.com/SSW-people	profile,ssw,people	MDEwOlJlcG9zaXRvcnkyMTgxNzQyNTM=
C2N3_C3N3	9	3	7	4	57	3	0	0.0	0.4	0.0	2020-04-16 19:33:46	https://github.com/Youcode-team/C2N3_C3N3	C'est un projet pour valider les compétences C3N3 (C1N3,C2N3)	javascript,projet-validation,html,css,css3,flexbox-css,eventlistener,eventhandler,coronavirus	MDEwOlJlcG9zaXRvcnkyNDk3NTA5MjQ=
agile-ipsum	6	6	9	3	50	22	0	0.0	1.0	0.0	2021-04-17 15:02:22	https://github.com/BrunnerLivio/agile-ipsum	Generate an Agile Lorem Ipsum placeholder text	agile,lorem,ipsum	MDEwOlJlcG9zaXRvcnkyMTcyODMzMzc=
css-tutorial-exercises-course	6	6	8	2	54	5	0	0.0	1.0	0.0	2021-04-21 00:56:25	https://github.com/4GeeksAcademy/css-tutorial-exercises-course	Learn CSS with an interactive and auto-graded tutorial with dozens of exercises.	css-exercises,css,css-tutorial,css-course,interactive-tutorial,tutorial-exercises,learn-to-code,learning-exercise,learn-css,aprende-css	MDEwOlJlcG9zaXRvcnkyMDAwMDI4Njk=
CutiepiiRobot	1	0	6	1	58	56	0	0.0	0.5	0.0	2021-05-13 21:22:36	https://github.com/Awesome-RJ/CutiepiiRobot	Cutiepii is An Anime themed advance Telegram group management bot.	bot,cutiepii-support,rajkumar,cutiepii,cutiepii-robot,tele,anime,telegram,database,gban	MDEwOlJlcG9zaXRvcnkzMDM5MjA4MDg=
telegram-bot	0	0	8	1	53	1	1	424.0	1.0	2.6485360735698023	2021-05-05 11:51:13	https://github.com/reboot13-git/telegram-bot	A simple PHP powered Telegram Bot.	php,telegram-bot,telegram-bot-api,bot-api,bot,telegram,php-bot	MDEwOlJlcG9zaXRvcnkzMTQ0NTkyMDY=
examples	0	0	10	8	46	6	0	0.0	1.0	0.0	2021-03-23 03:17:51	https://github.com/pipe-cd/examples	Examples to demonstrate how to use PipeCD	examples,kubernetes,cloudrun,lambda,terraform,ecs,istio,helm,kustomize	MDEwOlJlcG9zaXRvcnkyNzE4MTUyOTE=
docs	8	2	10	7	46	27	1	86940.0	0.3333333333333333	9.986679143422892	2021-05-11 11:02:00	https://github.com/LoginRadius/docs	LoginRadius Developer Documentation	gatsby,markdown,loginradius,open-source,hacktoberfest	MDEwOlJlcG9zaXRvcnkyNzk4NzExNDk=
AzureDevOpsPipelines-Tips	1	0	5	1	64	1	0	0.0	0.5	0.0	2021-01-07 03:27:24	https://github.com/HoussemDellai/AzureDevOpsPipelines-Tips	This demo shows how to deploy infrastructure into Azure using Terraform and Azure DevOps Yaml pipelines.	terraform,azure,azure-devops,iac,yaml-pipelines	MDEwOlJlcG9zaXRvcnkyNzMyNzE3NzA=
python-lists-loops-programming-exercises	1	0	5	3	62	10	0	0.0	0.5	0.0	2021-04-26 16:20:25	https://github.com/4GeeksAcademy/python-lists-loops-programming-exercises	Practice Python Lists and tuples (arrays) with interactive auto-graded exercises and video solutions.	python,python-tutorial,python-exercises,learn-python,breathecode,learn-to-code,learning-by-doing,interactive-exercise,python-interactive,4geeks-academy	MDEwOlJlcG9zaXRvcnkyMDM4ODYyMDM=
IS12-Warfare	17	12	7	2	53	16	0	0.0	0.7222222222222222	0.0	2021-03-30 20:05:36	https://github.com/Project-IS12/IS12-Warfare	The official IS12 Warfare repo.	byond,ss13,tdm	MDEwOlJlcG9zaXRvcnkyOTMxNTM3MDc=
mojave-sun	35	8	10	1	44	824	0	0.0	0.25	0.0	2021-05-12 14:28:40	https://github.com/Mojave-Sun/mojave-sun	A post-apocalyptic SS13 server based on modern tgstation.	ss13,spacestation13,space-station-13,tgstation,tgstation13	MDEwOlJlcG9zaXRvcnkyNzE3MTU1Mzc=
Spiderpig86	0	0	9	0	47	1	0	0.0	1.0	0.0	2021-05-13 01:16:58	https://github.com/Spiderpig86/Spiderpig86	:gem: Me. Star it if you like it :)	profile,profile-readme,readme-template,spiderpig86,amazon,aws	MDEwOlJlcG9zaXRvcnkyODEzMDkwMTM=
exercise-random-card	1	0	1	5	119	6	0	0.0	0.5	0.0	2021-05-11 20:39:01	https://github.com/breatheco-de/exercise-random-card	💻📹Video Tutorial: Ideal project tutorial for Javascript newbies, build a random card dealer with little JS, HTML and CSS.	video-tutorial,javascript,html,css3,html5,the-dom,learning-by-doing,learn-to-code,learning-exercise,learning-js	MDEwOlJlcG9zaXRvcnkyNTI5MTIyODc=
Algorithms	1	0	7	1	51	40	0	0.0	0.5	0.0	2021-03-31 18:41:34	https://github.com/adithyaanilkumar/Algorithms	A repo for Algorithms.	hacktoberfest,algorithms,languages,datastructures,hacktoberfest2020,algorithm,coding,competitive-programming,competitive-coding	MDEwOlJlcG9zaXRvcnkyMTg1NDg5NjQ=
DataQuest	5	1	6	2	53	42	0	0.0	0.3333333333333333	0.0	2020-11-26 14:04:15	https://github.com/harsh2ai/DataQuest	The git repo for every AI and python enthusiast	python,machine-learning,deep-learning,hacktoberfest2020,hacktoberfest-accepted,hacktoberfest	MDEwOlJlcG9zaXRvcnkyMTI1OTU1OTk=
First-Commit	0	0	2	1	83	34	0	0.0	1.0	0.0	2020-10-27 19:08:33	https://github.com/loveneeshdhir/First-Commit		pull-requests,hacktoberfest,hacktoberfest2019,hacktoberfest2018,hacktoberfest-2019,hacktoberfest19,hacktoberfest18,hacktoberfest-starter,pull-request,pullrequest	MDEwOlJlcG9zaXRvcnkyMzI4MzgwMTk=
sabesansathananthan	0	0	10	1	42	1	0	0.0	1.0	0.0	2021-04-22 12:01:32	https://github.com/sabesansathananthan/sabesansathananthan		github,profile,readme	MDEwOlJlcG9zaXRvcnkyODY0NjkwNjg=
anitab-forms-backend	72	61	6	3	51	37	0	0.0	0.8493150684931506	0.0	2021-05-08 14:41:58	https://github.com/anitab-org/anitab-forms-backend	AnitaB Forms (backend), an application to process smaller 4-week or full day programs to contribute to open source projects. Similar to GSoC, Outreachy, or RGSoC. This is the backend app.	python,backend,django-rest-framework	MDEwOlJlcG9zaXRvcnkyNjAzMTMyODY=
tomoblo	64	5	6	0	51	48	5	0.0	0.09230769230769231	5	2021-04-12 02:57:33	https://github.com/TOMOSIA-VIETNAM/tomoblo	TOMOSIA TECH BLOG	tomosia,tech,gastbyjs,github-pages	MDEwOlJlcG9zaXRvcnkyNzQwNDk5Mzk=
MarchCode	23	22	6	0	51	41	0	0.0	0.9583333333333334	0.0	2021-04-03 16:54:53	https://github.com/CodeTrophs/MarchCode	Seeing you guys taking interest in coding, and some of you looking for projects to practice, Codetrophs is here with its new programme called the March code where you can practice your programming skills through our provided projects based on basic to intermidiate programming.	codetrophs,intermidiate-programming,guys,programming-skills,practice	MDEwOlJlcG9zaXRvcnkzNDMxOTM2MDM=
admin-list	0	0	2	1	82	100	0	0.0	1.0	0.0	2020-10-09 04:41:26	https://github.com/alias-rahil/admin-list	https://github.com/csivitu/brobot.git/	python,telegram,bot,admin-list,csivit	MDEwOlJlcG9zaXRvcnkyNzIxOTY4NDQ=
slim-php-heroku	0	0	2	1	78	1	0	0.0	1.0	0.0	2021-03-25 16:12:41	https://github.com/flippiJS/slim-php-heroku	Aplicación Slim Framework 4 PHP con despliegue en Heroku 🚀	slim-framework,php,heroku	MDEwOlJlcG9zaXRvcnkzNDc3NzkzOTQ=
challenge-javascript-07	2	0	2	2	80	7	0	0.0	0.3333333333333333	0.0	2020-06-12 22:57:06	https://github.com/PlatziMaster/challenge-javascript-07	challenge-javascript-07 - Distancia Hamming	javascript,math,numbers,level-high	MDEwOlJlcG9zaXRvcnkyMzY4Njc2Njk=
hamonikr-apphamonia	3	3	2	1	79	5	1	790.0	1.0	0.504516454572726	2020-12-07 11:04:53	https://github.com/hamonikr/hamonikr-apphamonia	화상회의 프로그램	hamonikr-apphamonia,hamonikr,hamonia,webrtc	MDEwOlJlcG9zaXRvcnkxOTg1MzE3NTQ=
JavaTDD	56	51	9	2	40	18	0	0.0	0.9122807017543859	0.0	2021-04-12 10:32:09	https://github.com/fengyuanyang/JavaTDD	A repo to encourage beginner or improve your coding skill with Java Test Driven Development.You are welcome to contribute or file issues	java,hacktoberfest,hacktoberfest2020	MDEwOlJlcG9zaXRvcnkzMDE3ODk1NjQ=
PEPCO	5	1	8	1	43	30	0	0.0	0.3333333333333333	0.0	2021-05-09 14:12:07	https://github.com/Divyanshnigam/PEPCO	Data Structures and Algorithms. Contribute and Learn together.	hacktoberfest,linked-list,binary-search-tree,graph,dynamic-programming,sorting,stack,queue,hashing,heaps	MDEwOlJlcG9zaXRvcnkyOTUwODM4ODY=
seed-rs.org	26	17	10	1	39	32	0	0.0	0.6666666666666666	0.0	2021-04-10 12:02:39	https://github.com/seed-rs/seed-rs.org	Seed's official website	seed,rust,wasm,frontend,framework,official-website	MDEwOlJlcG9zaXRvcnkyMTQ1MzU1NDQ=
theBeginingOfPython	15	12	5	2	52	11	0	0.0	0.8125	0.0	2021-04-12 14:30:00	https://github.com/haedal-with-knu/theBeginingOfPython	왕초보도 할 수 있는 파이썬 첫 걸음	python3,tutorials,bootcamp-project	MDEwOlJlcG9zaXRvcnkyNDEwMTk4NjY=
stem-diverse-tv	147	71	7	2	44	30	0	0.0	0.4864864864864865	0.0	2021-05-01 14:57:52	https://github.com/anitab-org/stem-diverse-tv	STEM Diverse TV is a project which gather and provide inspiring, motivating, informative, educational and supportive videos about diversity in STEM. This is a backend which provide content for multiple frontend applications build with Applicaster Zapp platform.	python3,flask,backend,hacktoberfest	MDEwOlJlcG9zaXRvcnkyNzcxNzI1MTM=
PABWEB-B	0	0	8	1	41	37	0	0.0	1.0	0.0	2021-04-07 08:45:23	https://github.com/yysofiyan/PABWEB-B	:octocat: FT3109 - Pengembangan Aplikasi Berbasis Web (TI-IV-B) 🎓👨🏻‍💻👩‍💻	php7,webapp,php	MDEwOlJlcG9zaXRvcnkyNDEzMDA0Nzc=
Vesta.Bay	13	9	4	0	56	474	0	0.0	0.7142857142857143	0.0	2021-04-11 17:59:41	https://github.com/VestaOfOrion/Vesta.Bay	Vesta of Orion's repository based on the Baystation12 codebase	ss13,spacestation13,byond	MDEwOlJlcG9zaXRvcnkzMTM2OTE1OTU=
Filterbot	0	0	7	3	43	1	0	0.0	1.0	0.0	2021-05-07 06:22:14	https://github.com/No-OnE-Kn0wS-Me/Filterbot	An Marie based Bot For Setting Filters In your Group!! 	tg,telegram-bot,telegram,bot,bots,python3,marie,filter,group,management	MDEwOlJlcG9zaXRvcnkyNjYwMzU0MDA=
IT-Memes	2	2	7	1	43	41	0	0.0	1.0	0.0	2021-02-19 13:53:30	https://github.com/nickneos/IT-Memes	Contribute to Hacktoberfest 2020 by submitting a meme	hacktoberfest,hacktoberfest2020,hacktoberfest-accepted,hacktoberfest-starter,hactoberfest-beginner,beginner-friendly,help-wanted,memes	MDEwOlJlcG9zaXRvcnkzMDI5MDk5Nzg=
ProjectMRU	1	1	8	2	39	40	0	0.0	1.0	0.0	2021-03-23 11:30:43	https://github.com/c0sm0void/ProjectMRU	MRU Hacktober Fest 2020	hacktoberfest2020,hacktoberfest,github,newbiefriendly,code,commit,mru,pull-request,rewards,opensource	MDEwOlJlcG9zaXRvcnkzMDA2NjM4NzU=
ghost	0	0	6	2	44	3	0	0.0	1.0	0.0	2021-04-08 18:46:34	https://github.com/render-examples/ghost	Ghost on Render	ghost,ghost-blog,ghost-cms,render,hosting	MDEwOlJlcG9zaXRvcnkyMDI2NTY3NzU=
GLaDOS-CheckIn	1	0	9	0	39	1	0	0.0	0.5	0.0	2021-05-08 10:12:09	https://github.com/DullSword/GLaDOS-CheckIn	GLaDOS AutoCheckIn 定时自动签到	glados,nodejs,axios,github-actions,autocheckin	MDEwOlJlcG9zaXRvcnkzMTI1MzY3OTc=
netdrive3-i18n	0	0	3	3	58	14	0	0.0	1.0	0.0	2021-05-01 21:17:39	https://github.com/bdrive/netdrive3-i18n	Localization of NetDrive 3	netdrive,netdrive3,translation	MDEwOlJlcG9zaXRvcnkyMDIwNjU0Mzg=
tgstation	282	184	7	1	40	775	0	0.0	0.6537102473498233	0.0	2021-05-14 00:29:57	https://github.com/aq33/tgstation	polski fork beestation uzywany na Aquila Station 13	ss13,tgstation,byond,spacestation13,polska,polski	MDEwOlJlcG9zaXRvcnkyNjk2NzU3NTg=
guess-melody-demo	0	0	7	5	40	11	0	0.0	1.0	0.0	2021-04-06 21:13:26	https://github.com/htmlacademy/guess-melody-demo	Архив демо-проектов «Угадай мелодию» с курса «React. Разработка сложных клиентских приложений»	javascript,ecmascript,typescript,react,reactjs,intensive-javascript	MDEwOlJlcG9zaXRvcnkyMzc5NTgzMzA=
machine-learning-fundamentals	4	3	10	0	34	25	1	0.0	0.8	1	2021-03-05 09:40:03	https://github.com/CertifaiAI/machine-learning-fundamentals	Machine Learning Fundamentals	skymindpro,academy,machine-learning-fundamentals	MDEwOlJlcG9zaXRvcnkyMDc1MzAwNTI=
frontend-course-2020	17	0	5	6	45	49	0	0.0	0.05555555555555555	0.0	2021-02-01 16:47:03	https://github.com/MastersAcademy/frontend-course-2020	Репозиторій з курсу «Advanced Front-end» проекту Masters Academy	javascript,css,html,learning,angular,vuejs,reactjs,front-end,self-learning,masters-academy	MDEwOlJlcG9zaXRvcnkyOTg2MzQ2NzE=
linux	8	8	1	3	90	1	0	0.0	1.0	0.0	2021-05-07 09:29:08	https://github.com/coders-school/linux		linux,bash,script	MDEwOlJlcG9zaXRvcnkzNTkxNDQ5NTQ=
website	30	22	10	3	33	36	0	0.0	0.7419354838709677	0.0	2021-04-20 05:36:17	https://github.com/JIITODC/website	Main website for JODC	sapper,svelte,frontend,website,hacktoberfest	MDEwOlJlcG9zaXRvcnkyOTU3NjY5NjE=
Bulk-Mailer	71	69	10	1	33	22	0	0.0	0.9722222222222222	0.0	2021-05-07 15:04:44	https://github.com/vigneshshettyin/Bulk-Mailer	Bulk mailer implemented in flask using sendgrid api for mailing. It has templating, group mailing with a rich text editor.	girlscript,summer-of-code,flask-api,sqlalchemy,sendgrid-api,boostrap4,adminlte-template	MDEwOlJlcG9zaXRvcnkzNDQ4MTA2MjM=
genesisTransactions	0	0	5	1	46	26	0	0.0	1.0	0.0	2021-04-29 11:54:39	https://github.com/persistenceOne/genesisTransactions	Genesis files for persistence platfrom chain testnets.	persistencesdk,testnet,genesis	MDEwOlJlcG9zaXRvcnkxOTk0MDQzNjM=
ML-Logistic-regression-algorithm-challenge	0	0	3	6	54	3	0	0.0	1.0	0.0	2020-05-09 20:45:58	https://github.com/DataScienceNigeria/ML-Logistic-regression-algorithm-challenge	ML-Logistic-regression-algorithm-challenge	datascience,machinelearning,algorithim,python,r	MDEwOlJlcG9zaXRvcnkyNTUxNDU1OTU=
sliitfoss	105	101	10	5	32	20	4	128000.0	0.9622641509433962	10.987321607513222	2021-05-12 06:24:16	https://github.com/sliit-foss/sliitfoss	SLIIT FOSS Official Website	angular,typescript,sliit-foss,hacktoberfest	MDEwOlJlcG9zaXRvcnkyNjcxMDgxODU=
vrpex-zirix-v2	0	0	8	3	36	2	0	0.0	1.0	0.0	2021-05-04 03:15:16	https://github.com/Ziraflix/vrpex-zirix-v2	Base vRPex para FiveM, desenvolvida pela equipe ZIRAFLIX, conjunto a alguns scripts da comunidade.	fivem,fivem-script,fivem-server,fivem-roleplay	MDEwOlJlcG9zaXRvcnkyOTY0MzMwOTM=
centreon-documentation	4	4	8	20	35	55	0	0.0	1.0	0.0	2021-05-14 15:19:55	https://github.com/centreon/centreon-documentation	Centreon documentation	documentation,centreon,monitoring	MDEwOlJlcG9zaXRvcnkyMzU1NjY1MTU=
master-python-programming-exercises	1	1	7	2	37	5	0	0.0	1.0	0.0	2021-05-07 21:13:43	https://github.com/4GeeksAcademy/master-python-programming-exercises	Practice your Python programming skills with this interactive and auto-graded set of exercises.	python,python-exercises,python3,python-tutorial,python-interactive-tutorial,python-interactive-exercises,breathecode,learn-python,100daysofcode,learntocode	MDEwOlJlcG9zaXRvcnkyMDM1MTU0NDg=
hydroform	72	54	6	21	39	57	0	0.0	0.7534246575342466	0.0	2021-05-14 12:13:51	https://github.com/kyma-project/hydroform	Infrastructure SDK for provisioning and managing Kubernetes cluster based on Terraform	terraform,gcp,gardener	MDEwOlJlcG9zaXRvcnkyMDYwMTYwNDk=
workloads	54	21	10	5	31	15	0	0.0	0.4	0.0	2021-01-28 16:46:04	https://github.com/openshift-scale/workloads	Tool an OpenShift cluster and Run OpenShift Performance and Scale Workloads	openshift,openshift-performance,performance-testing,scalability,kubernetes,containers	MDEwOlJlcG9zaXRvcnkxODgwODY2MjU=
wiki	1	0	10	3	31	18	0	0.0	0.5	0.0	2021-05-14 19:47:43	https://github.com/discordfr/wiki	L'espace collaboratif du Wiki du site Discord.FR.	wiki,discord,fr,france	MDEwOlJlcG9zaXRvcnkyODk3NjQ2NjA=
College-Library-Website	37	29	8	1	35	17	0	0.0	0.7894736842105263	0.0	2021-05-04 17:55:27	https://github.com/urvashi-code1255/College-Library-Website	This is a College Library Website in which you can keep a record of all the books you have issued	html5,javascript,bootstrap4	MDEwOlJlcG9zaXRvcnkzMzEyMzg4Njk=
python-functions-programming-exercises	0	0	3	2	53	6	0	0.0	1.0	0.0	2021-03-19 05:16:15	https://github.com/4GeeksAcademy/python-functions-programming-exercises	Learn and master functional programing by doing auto-graded interactive exercises.	python,python3,interactive,interactive-exercises,interactive-tutorial,python-exercises,python-tutorial,python-interactive-tutorial,python-functions,practice-python	MDEwOlJlcG9zaXRvcnkyMzQwMDg5OTA=
ci-hackathon-app	82	60	9	2	32	18	22	228096.0	0.7349397590361446	15.736531068931974	2021-05-14 15:53:31	https://github.com/Code-Institute-Community/ci-hackathon-app	A community-built Django app to help automate future Code Institute hackathon events for students and alumni.	hacktoberfest,hacktoberfest2020,hackathon,code-institute,django	MDEwOlJlcG9zaXRvcnkyNjkwNjE2NTA=
react-native-svg-dynamic-colors	1	0	5	1	41	1	0	0.0	0.5	0.0	2021-04-02 14:31:55	https://github.com/hexboy/react-native-svg-dynamic-colors		react-native,svg,android,ios	MDEwOlJlcG9zaXRvcnkyNTgyNDIzNDM=
lichess-bot	2	2	2	1	61	2	0	0.0	1.0	0.0	2021-05-12 07:09:58	https://github.com/OIVAS7572/lichess-bot	A bridge between Lichess API and chess engines. Focussed on Docker in Heroku	heroku,lichess-bot,docker,bot-account,chess,lichess-api,python3,lichess,bot	MDEwOlJlcG9zaXRvcnkzMzg5OTUyMjI=
tv-minder	42	40	10	1	30	23	0	0.0	0.9534883720930233	0.0	2021-04-03 14:07:42	https://github.com/trybick/tv-minder	Web app to track your favorite shows	tv-shows,reminder,calendar,hacktoberfest	MDEwOlJlcG9zaXRvcnkyNTQ5Nzc1Njk=
components	3	2	10	14	30	19	92	7341600.0	0.75	18.826778540759708	2021-05-13 02:17:52	https://github.com/webex/components	Embed the power of Webex in your web applications, on your own terms 💪🏼	webex-component,react-components,webex-adapter,webex-teams,webex,webex-open-source,webex-web	MDEwOlJlcG9zaXRvcnkxOTg0NTY1MDA=
WebDevelopment	0	0	9	2	31	30	0	0.0	1.0	0.0	2021-05-12 09:22:03	https://github.com/Lean-IN-IGDTUW/WebDevelopment	Study material, Resources & Tasks for Web Development cohort 2020 - 2021.	html5,css3,flask,javascript,git,bootstrap,nodejs	MDEwOlJlcG9zaXRvcnkyOTUxNTYxMTE=
urlShortner	32	27	5	0	40	32	0	0.0	0.8484848484848485	0.0	2020-12-26 13:23:09	https://github.com/developer-student-club-thapar/urlShortner	This repository contains the custom domain URL generator project undertaken by DSC TIET	nodejs,react,travis-ci,hacktoberfest	MDEwOlJlcG9zaXRvcnkyNjY3NTg4NjI=
openhospital-api	0	0	8	16	32	27	0	0.0	1.0	0.0	2021-05-11 20:17:19	https://github.com/informatici/openhospital-api	Open Hospital API	java,openhospital,rest-api,healthcare	MDEwOlJlcG9zaXRvcnkyMDgwNTA1OTY=
