{
    "data": {
      "search": {
        "repositoryCount": 1382,
        "pageInfo": {
          "endCursor": "Y3Vyc29yOjEw",
          "startCursor": "Y3Vyc29yOjE="
        },
        "edges": [
          {
            "node": {
              "updatedAt": "2021-05-07T10:53:15Z",
              "id": "MDEwOlJlcG9zaXRvcnkzNDkyMzc0MjE=",
              "name": "node-cli-boilerplate",
              "url": "https://github.com/ptkdev-boilerplate/node-cli-boilerplate",
              "description": "🪓 Create node cli with this friendly boilerplate",
              "watchers": {
                "totalCount": 1
              },
              "forkCount": 2,
              "mentionableUsers": {
                "totalCount": 1
              },
              "closedIssues": {
                "totalCount": 0
              },
              "totalIssues": {
                "totalCount": 0
              },
              "repositoryTopics": {
                "edges": [
                  {
                    "node": {
                      "topic": {
                        "name": "cli"
                      }
                    }
                  },
                  {
                    "node": {
                      "topic": {
                        "name": "command-line-tool"
                      }
                    }
                  },
                  {
                    "node": {
                      "topic": {
                        "name": "command-line"
                      }
                    }
                  },
                  {
                    "node": {
                      "topic": {
                        "name": "command-line-interface"
                      }
                    }
                  },
                  {
                    "node": {
                      "topic": {
                        "name": "command-line-app"
                      }
                    }
                  },
                  {
                    "node": {
                      "topic": {
                        "name": "nodejs"
                      }
                    }
                  },
                  {
                    "node": {
                      "topic": {
                        "name": "node"
                      }
                    }
                  },
                  {
                    "node": {
                      "topic": {
                        "name": "node-module"
                      }
                    }
                  },
                  {
                    "node": {
                      "topic": {
                        "name": "typescript"
                      }
                    }
                  },
                  {
                    "node": {
                      "topic": {
                        "name": "cli-tools"
                      }
                    }
                  }
                ]
              },
              "releases": {
                "totalCount": 4
              }
            }
          },
          {
            "node": {
              "updatedAt": "2021-05-08T16:49:00Z",
              "id": "MDEwOlJlcG9zaXRvcnkzNTQwODc3MTU=",
              "name": "compe-tmux",
              "url": "https://github.com/andersevenrud/compe-tmux",
              "description": "Tmux completion source for nvim-compe",
              "watchers": {
                "totalCount": 2
              },
              "forkCount": 0,
              "mentionableUsers": {
                "totalCount": 1
              },
              "closedIssues": {
                "totalCount": 1
              },
              "totalIssues": {
                "totalCount": 1
              },
              "repositoryTopics": {
                "edges": [
                  {
                    "node": {
                      "topic": {
                        "name": "neovim"
                      }
                    }
                  },
                  {
                    "node": {
                      "topic": {
                        "name": "neovim-plugin"
                      }
                    }
                  },
                  {
                    "node": {
                      "topic": {
                        "name": "nvim-compe"
                      }
                    }
                  },
                  {
                    "node": {
                      "topic": {
                        "name": "nvim-plugin"
                      }
                    }
                  },
                  {
                    "node": {
                      "topic": {
                        "name": "lua"
                      }
                    }
                  },
                  {
                    "node": {
                      "topic": {
                        "name": "tmux"
                      }
                    }
                  }
                ]
              },
              "releases": {
                "totalCount": 0
              }
            }
          },
          {
            "node": {
              "updatedAt": "2021-05-10T01:31:01Z",
              "id": "MDEwOlJlcG9zaXRvcnkzNDkwNDgwMDU=",
              "name": "vdb_mapping",
              "url": "https://github.com/fzi-forschungszentrum-informatik/vdb_mapping",
              "description": "Performantes 3D Kartierungs-Framework auf Basis von OpenVDB",
              "watchers": {
                "totalCount": 4
              },
              "forkCount": 0,
              "mentionableUsers": {
                "totalCount": 3
              },
              "closedIssues": {
                "totalCount": 0
              },
              "totalIssues": {
                "totalCount": 0
              },
              "repositoryTopics": {
                "edges": []
              },
              "releases": {
                "totalCount": 0
              }
            }
          },
          {
            "node": {
              "updatedAt": "2021-05-08T10:28:42Z",
              "id": "MDEwOlJlcG9zaXRvcnkxODc2MzA0NjE=",
              "name": "arknights",
              "url": "https://github.com/tkkcc/arknights",
              "description": "明日方舟全日常辅助",
              "watchers": {
                "totalCount": 1
              },
              "forkCount": 2,
              "mentionableUsers": {
                "totalCount": 1
              },
              "closedIssues": {
                "totalCount": 0
              },
              "totalIssues": {
                "totalCount": 2
              },
              "repositoryTopics": {
                "edges": [
                  {
                    "node": {
                      "topic": {
                        "name": "arknights"
                      }
                    }
                  }
                ]
              },
              "releases": {
                "totalCount": 10
              }
            }
          },
          {
            "node": {
              "updatedAt": "2021-05-04T17:28:05Z",
              "id": "MDEwOlJlcG9zaXRvcnkyMDI1NzUxOTY=",
              "name": "Computer-Architecture",
              "url": "https://github.com/princeofpython/Computer-Architecture",
              "description": "Detailed and step by step implementation of RISC-V CPU from scratch using Verilog. This work is part of my academic course EE2003, Introduction to Computer Organisation in IIT Madras.",
              "watchers": {
                "totalCount": 1
              },
              "forkCount": 2,
              "mentionableUsers": {
                "totalCount": 1
              },
              "closedIssues": {
                "totalCount": 0
              },
              "totalIssues": {
                "totalCount": 1
              },
              "repositoryTopics": {
                "edges": [
                  {
                    "node": {
                      "topic": {
                        "name": "risc-v"
                      }
                    }
                  },
                  {
                    "node": {
                      "topic": {
                        "name": "riscv32"
                      }
                    }
                  },
                  {
                    "node": {
                      "topic": {
                        "name": "processor"
                      }
                    }
                  },
                  {
                    "node": {
                      "topic": {
                        "name": "alu"
                      }
                    }
                  },
                  {
                    "node": {
                      "topic": {
                        "name": "cpu"
                      }
                    }
                  },
                  {
                    "node": {
                      "topic": {
                        "name": "verilog"
                      }
                    }
                  },
                  {
                    "node": {
                      "topic": {
                        "name": "pipelining"
                      }
                    }
                  }
                ]
              },
              "releases": {
                "totalCount": 0
              }
            }
          },
          {
            "node": {
              "updatedAt": "2021-05-04T21:24:34Z",
              "id": "MDEwOlJlcG9zaXRvcnkzMDcwOTIxMzI=",
              "name": "Satellite-Dish-Positioner",
              "url": "https://github.com/AK-Homberger/Satellite-Dish-Positioner",
              "description": "An automatical satellite dish positioner with ESP8266 D1 Mini, compass and MPU.",
              "watchers": {
                "totalCount": 2
              },
              "forkCount": 1,
              "mentionableUsers": {
                "totalCount": 1
              },
              "closedIssues": {
                "totalCount": 4
              },
              "totalIssues": {
                "totalCount": 4
              },
              "repositoryTopics": {
                "edges": [
                  {
                    "node": {
                      "topic": {
                        "name": "wemos"
                      }
                    }
                  },
                  {
                    "node": {
                      "topic": {
                        "name": "esp8266"
                      }
                    }
                  },
                  {
                    "node": {
                      "topic": {
                        "name": "satellite"
                      }
                    }
                  },
                  {
                    "node": {
                      "topic": {
                        "name": "dish"
                      }
                    }
                  },
                  {
                    "node": {
                      "topic": {
                        "name": "positioner"
                      }
                    }
                  }
                ]
              },
              "releases": {
                "totalCount": 1
              }
            }
          },
          {
            "node": {
              "updatedAt": "2021-05-03T14:43:52Z",
              "id": "MDEwOlJlcG9zaXRvcnkyMzczNTkyNTQ=",
              "name": "engine-builds",
              "url": "https://github.com/flutter-rs/engine-builds",
              "description": "flutter-rs engine builds",
              "watchers": {
                "totalCount": 3
              },
              "forkCount": 1,
              "mentionableUsers": {
                "totalCount": 3
              },
              "closedIssues": {
                "totalCount": 0
              },
              "totalIssues": {
                "totalCount": 0
              },
              "repositoryTopics": {
                "edges": []
              },
              "releases": {
                "totalCount": 748
              }
            }
          },
          {
            "node": {
              "updatedAt": "2021-05-01T15:22:55Z",
              "id": "MDEwOlJlcG9zaXRvcnkyNTAwMDk0NDY=",
              "name": "dotfiles",
              "url": "https://github.com/keesvv/dotfiles",
              "description": "💻 My personal dotfiles.",
              "watchers": {
                "totalCount": 0
              },
              "forkCount": 2,
              "mentionableUsers": {
                "totalCount": 3
              },
              "closedIssues": {
                "totalCount": 0
              },
              "totalIssues": {
                "totalCount": 0
              },
              "repositoryTopics": {
                "edges": [
                  {
                    "node": {
                      "topic": {
                        "name": "dotfiles"
                      }
                    }
                  },
                  {
                    "node": {
                      "topic": {
                        "name": "vim"
                      }
                    }
                  },
                  {
                    "node": {
                      "topic": {
                        "name": "compton"
                      }
                    }
                  },
                  {
                    "node": {
                      "topic": {
                        "name": "linux-rice"
                      }
                    }
                  },
                  {
                    "node": {
                      "topic": {
                        "name": "polybar"
                      }
                    }
                  },
                  {
                    "node": {
                      "topic": {
                        "name": "bspwm"
                      }
                    }
                  },
                  {
                    "node": {
                      "topic": {
                        "name": "alacritty"
                      }
                    }
                  }
                ]
              },
              "releases": {
                "totalCount": 0
              }
            }
          },
          {
            "node": {
              "updatedAt": "2021-05-01T15:24:42Z",
              "id": "MDEwOlJlcG9zaXRvcnkzMjQwODE3Njk=",
              "name": "raihaninfo",
              "url": "https://github.com/raihaninfo/raihaninfo",
              "description": "Md Abu Raihan portfolio",
              "watchers": {
                "totalCount": 1
              },
              "forkCount": 1,
              "mentionableUsers": {
                "totalCount": 1
              },
              "closedIssues": {
                "totalCount": 0
              },
              "totalIssues": {
                "totalCount": 0
              },
              "repositoryTopics": {
                "edges": []
              },
              "releases": {
                "totalCount": 0
              }
            }
          },
          {
            "node": {
              "updatedAt": "2021-05-01T15:31:12Z",
              "id": "MDEwOlJlcG9zaXRvcnkzMTE5MTYxMTg=",
              "name": "MCBBS-Loader-Core",
              "url": "https://github.com/MCBBS-Loader/MCBBS-Loader-Core",
              "description": null,
              "watchers": {
                "totalCount": 1
              },
              "forkCount": 1,
              "mentionableUsers": {
                "totalCount": 2
              },
              "closedIssues": {
                "totalCount": 1
              },
              "totalIssues": {
                "totalCount": 1
              },
              "repositoryTopics": {
                "edges": []
              },
              "releases": {
                "totalCount": 0
              }
            }
          }
        ]
      }
    }
  }